{ 
    "Styles" : [ { 
        "Name" : "SDMapPinImage",
        "DefaultClass" : true,
        "PinHeight" : "0",
        "PinWidth" : "0"
    }, { 
        "Name" : "Application",
        "DefaultClass" : true,
        "background_image_mode" : "stretch",
        "image_loading_indicator" : "False"
    }, { 
        "Name" : "ApplicationBars",
        "DefaultClass" : true
    }, { 
        "Name" : "Form",
        "DefaultClass" : true,
        "enter_effect" : "gx_default",
        "close_effect" : "gx_default",
        "call_type" : "gx_default",
        "target_size" : "gx_default",
        "target_width" : "100%",
        "target_height" : "100%"
    }, { 
        "Name" : "Button",
        "DefaultClass" : true,
        "ThemeTransformationReference" : "(none)",
        "ThemeAnimated" : "False",
        "Styles" : [ { 
            "Name" : "ButtonSectionLink",
            "border_style" : "solid",
            "border_color" : "#C8C7CC",
            "border_width" : "0.5dip",
            "margin_bottom" : "18dip",
            "margin_top" : "18dip",
            "background_color" : "#FFFFFF",
            "highlighted_background_color" : "#D9D9D9",
            "highlighted_color" : "#000000",
            "font_category" : "body",
            "padding_bottom" : "5dip",
            "padding_top" : "5dip"
        } ]
    }, { 
        "Name" : "GroupSeparator",
        "DefaultClass" : true
    }, { 
        "Name" : "Image",
        "DefaultClass" : true,
        "ThemeTransformationReference" : "(none)",
        "ThemeAnimated" : "False",
        "image_loading_indicator" : "False",
        "sdmotion_max_horizontal" : "0",
        "sdmotion_max_vertical" : "0"
    }, { 
        "Name" : "TabPage",
        "DefaultClass" : true,
        "Styles" : [ { 
            "Name" : "TabPageSelected"
        }, { 
            "Name" : "TabPageUnselected"
        } ]
    }, { 
        "Name" : "Table",
        "DefaultClass" : true,
        "ThemeTransformationReference" : "(none)",
        "ThemeAnimated" : "False",
        "background_image_mode" : "stretch",
        "sd_row_horizontal_line_separator" : "False",
        "sdmotion_max_horizontal" : "0",
        "sdmotion_max_vertical" : "0",
        "Styles" : [ { 
            "Name" : "MatrixCell"
        }, { 
            "Name" : "MatrixSelectedCell"
        }, { 
            "Name" : "MatrixAxisTable"
        }, { 
            "Name" : "MatrixEvenRowTable"
        }, { 
            "Name" : "MatrixOddRowTable"
        }, { 
            "Name" : "MatrixSelectedRowTable"
        }, { 
            "Name" : "TableDetail",
            "background_color" : "#EFEFF4",
            "padding_bottom" : "10dip",
            "padding_top" : "10dip"
        }, { 
            "Name" : "TableSection",
            "border_style" : "solid",
            "border_color" : "#C8C7CC",
            "border_width" : "0.5dip",
            "margin_bottom" : "18dip",
            "margin_top" : "18dip",
            "background_color" : "#FFFFFF",
            "padding_left" : "15dip",
            "sd_row_horizontal_line_separator" : "True",
            "ThemeHorizontalLineClassReference" : "HorizontalLine"
        } ]
    }, { 
        "Name" : "Matrix",
        "DefaultClass" : true,
        "YAxisTitleLabelClassReference" : "MatrixLabel",
        "YAxisDescriptionLabelClassReference" : "MatrixLabel",
        "XAxisLabelClassReference" : "MatrixLabel",
        "CellTableClassReference" : "MatrixCell",
        "SelectedCellTableClassReference" : "MatrixSelectedCell",
        "XAxisTableClassReference" : "MatrixAxisTable",
        "YAxisTableClassReference" : "MatrixAxisTable",
        "RowTableClassReferenceEven" : "MatrixRowTable",
        "RowTableClassReferenceOdd" : "MatrixRowTable",
        "SelectedRowTableClassReference" : "MatrixRowTable",
        "showHorizontalRules" : "True",
        "HorizontalLineSeparatorClassReference" : "MatrixLineSeparator",
        "VerticalLineSeparatorClassReference" : "MatrixLineSeparator",
        "showVerticalRules" : "True",
        "ThemeTransformationReference" : "(none)",
        "ThemeAnimated" : "False",
        "background_image_mode" : "stretch"
    }, { 
        "Name" : "MatrixAxisLabel",
        "DefaultClass" : true,
        "VerticalAlignment" : "Default",
        "HorizontalAlignment" : "Default",
        "ThemeTransformationReference" : "(none)",
        "ThemeAnimated" : "False"
    }, { 
        "Name" : "SDPageController",
        "DefaultClass" : true,
        "SDPageControllerBackgroundColor" : "#000000",
        "SDPageIndicatorSelectedColor" : "#FFFFFF",
        "SDPageIndicatorUnselectedColor" : "#777777"
    }, { 
        "Name" : "Attribute",
        "DefaultClass" : true,
        "ThemeTransformationReference" : "(none)",
        "ThemeAnimated" : "False",
        "font_category" : "body",
        "ThemeLabelClassReference" : "TextBlock",
        "Styles" : [ { 
            "Name" : "AttributeReadOnly",
            "ThemeLabelClassReference" : "TextBlock"
        }, { 
            "Name" : "AttributeTitle",
            "font_category" : "headline",
            "ThemeLabelClassReference" : "TextBlockTitle"
        }, { 
            "Name" : "AttributeSubtitle",
            "font_category" : "subheadline",
            "ThemeLabelClassReference" : "TextBlockSubtitle"
        } ]
    }, { 
        "Name" : "Dashboard",
        "DefaultClass" : true,
        "ThemeGridClassReference" : "Grid",
        "ThemeTabClassReference" : "Tab"
    }, { 
        "Name" : "DashboardOption",
        "DefaultClass" : true,
        "ThemeTransformationReference" : "(none)",
        "ThemeAnimated" : "False",
        "font_category" : "body",
        "Styles" : [ { 
            "Name" : "DashboardOptionPanoramaItem"
        } ]
    }, { 
        "Name" : "Grid",
        "DefaultClass" : true,
        "ThemeTransformationReference" : "(none)",
        "ThemeAnimated" : "False",
        "background_image_mode" : "stretch",
        "sd_row_horizontal_line_separator" : "True",
        "ThemeGridOddRowClassReference" : "GridRowOdd",
        "ThemeGridEvenRowClassReference" : "GridRowEven"
    }, { 
        "Name" : "GridRow",
        "DefaultClass" : true,
        "ThemeTransformationReference" : "(none)",
        "ThemeAnimated" : "False",
        "background_image_mode" : "stretch",
        "padding_left" : "10dip",
        "padding_right" : "10dip",
        "Styles" : [ { 
            "Name" : "GridRowOdd"
        }, { 
            "Name" : "GridRowEven"
        } ]
    }, { 
        "Name" : "Group",
        "DefaultClass" : true,
        "ThemeTransformationReference" : "(none)",
        "ThemeAnimated" : "False",
        "border_style" : "solid",
        "border_color" : "#C8C7CC",
        "border_width" : "0.5dip",
        "ThemeCaptionClassReference" : "TextBlockGroupCaption",
        "background_color" : "#FFFFFF",
        "background_image_mode" : "stretch",
        "sdmotion_max_horizontal" : "0",
        "sdmotion_max_vertical" : "0"
    }, { 
        "Name" : "HorizontalLine",
        "DefaultClass" : true,
        "background_color" : "#C8C7CC",
        "Styles" : [ { 
            "Name" : "MatrixLineSeparator"
        } ]
    }, { 
        "Name" : "Tab",
        "DefaultClass" : true,
        "ThemeTransformationReference" : "(none)",
        "ThemeAnimated" : "False",
        "ThemeSelectedTabPageClassReference" : "TabPageSelected",
        "ThemeUnselectedTabPageClassReference" : "TabPageUnselected"
    }, { 
        "Name" : "TextBlock",
        "DefaultClass" : true,
        "ThemeTransformationReference" : "(none)",
        "ThemeAnimated" : "False",
        "font_size" : "14dip",
        "font_category" : "caption1",
        "Styles" : [ { 
            "Name" : "TextBlockApplicationTitle"
        }, { 
            "Name" : "TextBlockBackButton"
        }, { 
            "Name" : "TextBlockSectionTitle"
        }, { 
            "Name" : "TextBlockTitle",
            "font_size" : "18dip",
            "font_category" : "headline"
        }, { 
            "Name" : "TextBlockSubtitle",
            "font_category" : "subheadline"
        }, { 
            "Name" : "TextBlockGroupCaption",
            "color" : "#FFFFFF"
        } ]
    } ],
    "Transformations" : [ ],
    "Colors" : [ ]
}