{

"GxObject":{"ObjectType":"BusinessComponent","Name":"Audit","idConnectivitySupport":"idInherit","Structure":{"Levels":[{"Name":"Audit","ParentLevel":"","LevelName":"Audit","Description":"Audit","Attributes":[{"Name":"AuditId","Caption":"Id Auditoria","default":"0","AutoNumber":"true","IsKey":"true","ReadOnly":"false","AttributeType":"int","Description":"Id Auditoria","Length":"18","Decimals":"0","Signed":"false","AllowDBNulls":"false","Domain":"Id","InternalName":"AuditId","InputPicture":"ZZZZZZZZZZZZZZZZZ9","Type":"xs:int"},{"Name":"AuditDate","Caption":"Data / Hora","default":"","IsKey":"false","ReadOnly":"false","AttributeType":"dtime","Description":"Data / Hora","Length":"7","Decimals":"5","Signed":"false","AllowDBNulls":"true","InternalName":"AuditDate","DescriptionAtt":"true","InputPicture":"99/99/99 99:99","Type":"xs:string"},{"Name":"AuditTableName","Caption":"Nome da Tabela","default":"","IsKey":"false","ReadOnly":"false","AttributeType":"char","Description":"Nome da Tabela","Length":"50","Decimals":"0","Signed":"false","AllowDBNulls":"true","Domain":"Nome","InternalName":"AuditTableName","InputPicture":"@!","Type":"xs:string"},{"Name":"AuditDescription","Caption":"Descrição","default":"","IsKey":"false","ReadOnly":"false","AttributeType":"vchar","Description":"Descrição","Length":"2097152","Decimals":"0","Signed":"false","AllowDBNulls":"true","InternalName":"AuditDescription","InputPicture":"","Type":"xs:string"},{"Name":"AuditShortDescription","Caption":"Descrição Compacta","default":"","IsKey":"false","ReadOnly":"false","AttributeType":"svchar","Description":"Descrição Compacta","Length":"400","Decimals":"0","Signed":"false","AllowDBNulls":"true","InternalName":"AuditShortDescription","InputPicture":"","Type":"xs:string"},{"Name":"Usuario_Codigo","Caption":"Código","default":"0","IsKey":"false","ReadOnly":"false","AttributeType":"int","Description":"Código","Length":"6","Decimals":"0","Signed":"false","AllowDBNulls":"true","Domain":"Codigo","InternalName":"Usuario_Codigo","InputPicture":"ZZZZZ9","Type":"xs:int"},{"Name":"Usuario_PessoaNom","Caption":"Pessoa","default":"","IsKey":"false","ReadOnly":"true","AttributeType":"char","Description":"Pessoa","Length":"100","Decimals":"0","Signed":"false","AllowDBNulls":"true","Domain":"Nome100","InternalName":"Usuario_PessoaNom","InputPicture":"@!","Type":"xs:string"},{"Name":"Usuario_Nome","Caption":"Usuário","default":"","IsKey":"false","ReadOnly":"true","AttributeType":"char","Description":"Usuário","Length":"50","Decimals":"0","Signed":"false","AllowDBNulls":"true","Domain":"Nome","InternalName":"Usuario_Nome","InputPicture":"@!","Type":"xs:string"},{"Name":"AuditAction","Caption":"Ação","default":"","IsKey":"false","ReadOnly":"false","AttributeType":"char","Description":"Ação","Length":"3","Decimals":"0","Signed":"false","AllowDBNulls":"true","InternalName":"AuditAction","InputPicture":"","Type":"xs:string"}]}]},"Relations":{"ManyToOne":{"references":[{"Name":"PessoaUsuario_PessoaCod","BusinessComponent":"Pessoa","LevelName":"Audit","Description":"Pessoas","ForeignKey":{"KeyAttributes":[{"Name":"Usuario_PessoaCod","Type":"int","AtributeSuperType":"Pessoa_Codigo"}]},"InferredAttributes":{"Attributes":[{"Name":"Usuario_PessoaNom","Type":"char","AtributeSuperType":"Pessoa_Nome"}]}},{"Name":"UsuarioUsuario_Codigo","BusinessComponent":"Usuario","LevelName":"Audit","Description":"Usuario","ForeignKey":{"KeyAttributes":[{"Name":"Usuario_Codigo","Type":"int"}]},"InferredAttributes":{"Attributes":[{"Name":"Usuario_PessoaCod","Type":"int"},{"Name":"Usuario_Nome","Type":"char"},{"Name":"Usuario_PessoaNom","Type":"char"},{"Name":"Usuario_PessoaNom","Type":"char"}]}}]}}}
}
