{

"GxObject":{"ObjectType":"BusinessComponent","Name":"Contrato","idConnectivitySupport":"idInherit","Structure":{"Levels":[{"Name":"Contrato","ParentLevel":"","LevelName":"Contrato","Description":"Contrato","Attributes":[{"Name":"Contrato_Codigo","Caption":"Contrato","default":"0","AutoNumber":"true","IsKey":"true","ReadOnly":"false","AttributeType":"int","Description":"Contrato","Length":"6","Decimals":"0","Signed":"false","AllowDBNulls":"false","Domain":"Codigo","InternalName":"Contrato_Codigo","InputPicture":"ZZZZZ9","Type":"xs:int"},{"Name":"Contrato_AreaTrabalhoCod","Caption":"Cód. Área de Trabalho","default":"0","SuperType":"AreaTrabalho_Codigo","SubtypeGroup":"ST_Contrato_AreaTrabalho","IsKey":"false","ReadOnly":"false","AttributeType":"int","Description":"Cód. Área de Trabalho","Length":"6","Decimals":"0","Signed":"false","AllowDBNulls":"false","Domain":"Codigo","InternalName":"Contrato_AreaTrabalhoCod","InputPicture":"ZZZZZ9","Type":"xs:int"},{"Name":"Contrato_AreaTrabalhoDes","Caption":"Área de Trabalho","default":"","IsKey":"false","ReadOnly":"true","AttributeType":"svchar","Description":"Área de Trabalho","Length":"50","Decimals":"0","Signed":"false","AllowDBNulls":"true","Domain":"Descricao","InternalName":"Contrato_AreaTrabalhoDes","InputPicture":"@!","Type":"xs:string"},{"Name":"Contratada_Codigo","Caption":"Contratada","default":"0","IsKey":"false","ReadOnly":"false","AttributeType":"int","Description":"Contratada","Length":"6","Decimals":"0","Signed":"false","AllowDBNulls":"false","Domain":"Codigo","InternalName":"Contratada_Codigo","InputPicture":"ZZZZZ9","Type":"xs:int"},{"Name":"Contratada_PessoaCod","Caption":"Cód. da Pessoa","default":"0","SuperType":"Pessoa_Codigo","SubtypeGroup":"ST_Contratada_Pessoa","IsKey":"false","ReadOnly":"true","AttributeType":"int","Description":"Cód. da Pessoa","Length":"6","Decimals":"0","Signed":"false","AllowDBNulls":"true","Domain":"Codigo","InternalName":"Contratada_PessoaCod","InputPicture":"ZZZZZ9","Type":"xs:int"},{"Name":"Contratada_PessoaNom","Caption":"Nome","default":"","IsKey":"false","ReadOnly":"true","AttributeType":"char","Description":"Nome","Length":"100","Decimals":"0","Signed":"false","AllowDBNulls":"true","Domain":"Nome100","InternalName":"Contratada_PessoaNom","InputPicture":"@!","Type":"xs:string"},{"Name":"Contratada_PessoaCNPJ","Caption":" CNPJ da Pessoa","default":"","IsKey":"false","ReadOnly":"true","AttributeType":"svchar","Description":" CNPJ da Pessoa","Length":"15","Decimals":"0","Signed":"false","AllowDBNulls":"true","Domain":"Docto","InternalName":"Contratada_PessoaCNPJ","InputPicture":"","Type":"xs:string"},{"Name":"Contratada_Sigla","Caption":"Sigla","default":"","IsKey":"false","ReadOnly":"true","AttributeType":"char","Description":"Sigla","Length":"15","Decimals":"0","Signed":"false","AllowDBNulls":"true","Domain":"Sigla","InternalName":"Contratada_Sigla","InputPicture":"@!","Type":"xs:string"},{"Name":"Contratada_TipoFabrica","Caption":"Tipo","default":"","IsKey":"false","ReadOnly":"true","AttributeType":"char","Description":"Tipo","Length":"1","Decimals":"0","Signed":"false","IsEnumeration":"true","EnumerationType":"TipoFabrica","AllowDBNulls":"true","Domain":"TipoFabrica","InternalName":"Contratada_TipoFabrica","InputPicture":"","Type":"xs:string"},{"Name":"Contrato_Numero","Caption":"Número do Contrato","default":"","IsKey":"false","ReadOnly":"false","AttributeType":"char","Description":"Número do Contrato","Length":"20","Decimals":"0","Signed":"false","AllowDBNulls":"false","Domain":"NumeroContrato","InternalName":"Contrato_Numero","InputPicture":"","Type":"xs:string"},{"Name":"Contrato_NumeroAta","Caption":"Número da Ata","default":"","IsKey":"false","ReadOnly":"false","AttributeType":"char","Description":"Número da Ata","Length":"10","Decimals":"0","Signed":"false","AllowDBNulls":"true","Domain":"NumeroAta","InternalName":"Contrato_NumeroAta","DescriptionAtt":"true","InputPicture":"","Type":"xs:string"},{"Name":"Contrato_Ano","Caption":"Ano","default":"0","IsKey":"false","ReadOnly":"false","AttributeType":"int","Description":"Ano","Length":"4","Decimals":"0","Signed":"false","AllowDBNulls":"false","Domain":"Ano","InternalName":"Contrato_Ano","InputPicture":"ZZZ9","Type":"xs:int"},{"Name":"Contrato_Objeto","Caption":"Objeto do Contrato","default":"","IsKey":"false","ReadOnly":"false","AttributeType":"vchar","Description":"Objeto do Contrato","Length":"10000","Decimals":"0","Signed":"false","AllowDBNulls":"false","Domain":"TextoObjeto","InternalName":"Contrato_Objeto","InputPicture":"","Type":"xs:string"},{"Name":"Contrato_UnidadeContratacao","Caption":"Unidade","default":"0","IsKey":"false","ReadOnly":"false","AttributeType":"int","Description":"Unidade","Length":"2","Decimals":"0","Signed":"false","IsEnumeration":"true","EnumerationType":"UnidadeContratacao","AllowDBNulls":"false","Domain":"UnidadeContratacao","InternalName":"Contrato_UnidadeContratacao","InputPicture":"Z9","Type":"xs:int"},{"Name":"Contrato_Quantidade","Caption":"Quantidade","default":"0","IsKey":"false","ReadOnly":"false","AttributeType":"int","Description":"Quantidade","Length":"9","Decimals":"0","Signed":"false","AllowDBNulls":"false","Domain":"QuantidadeContrato","InternalName":"Contrato_Quantidade","InputPicture":"ZZZZZZZZ9","Type":"xs:int"},{"Name":"Contrato_DataVigenciaInicio","Caption":"Vigência Inicio","default":"","IsKey":"false","ReadOnly":"false","AttributeType":"date","Description":"Vigência Inicio","Length":"8","Decimals":"0","Signed":"false","AllowDBNulls":"false","Domain":"Data","InternalName":"Contrato_DataVigenciaInicio","InputPicture":"99/99/99","Type":"xs:string"},{"Name":"Contrato_DataVigenciaTermino","Caption":"Vigência Término","default":"","IsKey":"false","ReadOnly":"false","AttributeType":"date","Description":"Vigência Término","Length":"8","Decimals":"0","Signed":"false","AllowDBNulls":"false","Domain":"Data","InternalName":"Contrato_DataVigenciaTermino","InputPicture":"99/99/99","Type":"xs:string"},{"Name":"Contrato_DataInicioTA","Caption":"Data inicio Termo Aditivo","default":"","IsKey":"false","ReadOnly":"true","AttributeType":"date","Description":"Data inicio Termo Aditivo","Length":"8","Decimals":"0","Signed":"false","AllowDBNulls":"true","InternalName":"Contrato_DataInicioTA","InputPicture":"99/99/99","Type":"xs:string"},{"Name":"Contrato_DataFimTA","Caption":"Data final Termo Aditivo","default":"","IsKey":"false","ReadOnly":"true","AttributeType":"date","Description":"Data final Termo Aditivo","Length":"8","Decimals":"0","Signed":"false","AllowDBNulls":"true","InternalName":"Contrato_DataFimTA","InputPicture":"99/99/99","Type":"xs:string"},{"Name":"Contrato_DataPublicacaoDOU","Caption":"Publicação DOU","default":"","IsKey":"false","ReadOnly":"false","AttributeType":"date","Description":"Publicação DOU","Length":"8","Decimals":"0","Signed":"false","AllowDBNulls":"false","Domain":"Data","InternalName":"Contrato_DataPublicacaoDOU","InputPicture":"99/99/99","Type":"xs:string"},{"Name":"Contrato_DataTermino","Caption":"Vigência","default":"","IsKey":"false","ReadOnly":"true","AttributeType":"date","Description":"Vigência","Length":"8","Decimals":"0","Signed":"false","AllowDBNulls":"true","InternalName":"Contrato_DataTermino","InputPicture":"99/99/99","Type":"xs:string"},{"Name":"Contrato_DataAssinatura","Caption":"Assinatura","default":"","IsKey":"false","ReadOnly":"false","AttributeType":"date","Description":"Assinatura","Length":"8","Decimals":"0","Signed":"false","AllowDBNulls":"false","Domain":"Data","InternalName":"Contrato_DataAssinatura","InputPicture":"99/99/99","Type":"xs:string"},{"Name":"Contrato_DataPedidoReajuste","Caption":"Pedido Reajuste","default":"","IsKey":"false","ReadOnly":"false","AttributeType":"date","Description":"Pedido Reajuste","Length":"8","Decimals":"0","Signed":"false","AllowDBNulls":"false","Domain":"Data","InternalName":"Contrato_DataPedidoReajuste","InputPicture":"99/99/99","Type":"xs:string"},{"Name":"Contrato_DataTerminoAta","Caption":"Término da Ata","default":"","IsKey":"false","ReadOnly":"false","AttributeType":"date","Description":"Término da Ata","Length":"8","Decimals":"0","Signed":"false","AllowDBNulls":"false","Domain":"Data","InternalName":"Contrato_DataTerminoAta","InputPicture":"99/99/99","Type":"xs:string"},{"Name":"Contrato_DataFimAdaptacao","Caption":"Fim Adaptação","default":"","IsKey":"false","ReadOnly":"false","AttributeType":"date","Description":"Fim Adaptação","Length":"8","Decimals":"0","Signed":"false","AllowDBNulls":"false","Domain":"Data","InternalName":"Contrato_DataFimAdaptacao","InputPicture":"99/99/99","Type":"xs:string"},{"Name":"Contrato_Valor","Caption":"Valor do Contrato","default":"0","IsKey":"false","ReadOnly":"false","AttributeType":"int","Description":"Valor do Contrato","Length":"17","Decimals":"5","Signed":"true","AllowDBNulls":"false","Domain":"Valor","InternalName":"Contrato_Valor","InputPicture":"ZZZ,ZZZ,ZZZ,ZZ9.99","Type":"xs:decimal"},{"Name":"Contrato_ValorUnidadeContratacao","Caption":"Valor da Unidade","default":"0","IsKey":"false","ReadOnly":"false","AttributeType":"int","Description":"Valor da Unidade","Length":"17","Decimals":"5","Signed":"true","AllowDBNulls":"false","Domain":"Valor","InternalName":"Contrato_ValorUnidadeContratacao","InputPicture":"ZZZ,ZZZ,ZZZ,ZZ9.99","Type":"xs:decimal"},{"Name":"Contrato_ValorUndCntAtual","Caption":"Valor Unidade Contratação","default":"0","IsKey":"false","ReadOnly":"true","AttributeType":"int","Description":"Valor Unidade Contratação","Length":"17","Decimals":"5","Signed":"true","AllowDBNulls":"true","Domain":"Valor","InternalName":"Contrato_ValorUndCntAtual","InputPicture":"ZZZ,ZZZ,ZZZ,ZZ9.99","Type":"xs:decimal"},{"Name":"Contrato_RegrasPagto","Caption":"Regras para pagamento","default":"","IsKey":"false","ReadOnly":"false","AttributeType":"vchar","Description":"Regras para pagamento","Length":"500","Decimals":"0","Signed":"false","AllowDBNulls":"false","Domain":"RegrasPagto","InternalName":"Contrato_RegrasPagto","InputPicture":"","Type":"xs:string"},{"Name":"Contrato_DiasPagto","Caption":"Dias para Pagamento","default":"30","IsKey":"false","ReadOnly":"false","AttributeType":"int","Description":"Dias para Pagamento","Length":"4","Decimals":"0","Signed":"false","AllowDBNulls":"false","InternalName":"Contrato_DiasPagto","InputPicture":"ZZZ9","Type":"xs:int"},{"Name":"Contrato_CalculoDivergencia","Caption":"Cálculo da Divergência:","default":"B","IsKey":"false","ReadOnly":"false","AttributeType":"char","Description":"Cálculo da Divergência:","Length":"1","Decimals":"0","Signed":"false","AllowDBNulls":"false","InternalName":"Contrato_CalculoDivergencia","InputPicture":"","Type":"xs:string"},{"Name":"Contrato_IndiceDivergencia","Caption":"Indice de Aceitação","default":"10","IsKey":"false","ReadOnly":"false","AttributeType":"int","Description":"Indice de Aceitação","Length":"5","Decimals":"2","Signed":"false","AllowDBNulls":"false","Domain":"Percentual","InternalName":"Contrato_IndiceDivergencia","InputPicture":"ZZ9.99","Type":"xs:decimal"},{"Name":"Contrato_AceitaPFFS","Caption":"Aceita menor PF da FS","default":"","IsKey":"false","ReadOnly":"false","AttributeType":"boolean","Description":"Aceita menor PF da FS","Length":"4","Decimals":"0","Signed":"false","AllowDBNulls":"true","Domain":"Flag","InternalName":"Contrato_AceitaPFFS","InputPicture":"","Type":"xs:string"},{"Name":"Contrato_Ativo","Caption":"Ativo","default":"","IsKey":"false","ReadOnly":"false","AttributeType":"boolean","Description":"Ativo","Length":"4","Decimals":"0","Signed":"false","AllowDBNulls":"false","Domain":"Flag","InternalName":"Contrato_Ativo","InputPicture":"","Type":"xs:string"},{"Name":"Contrato_PrepostoCod","Caption":"Preposto","default":"0","SuperType":"Usuario_Codigo","SubtypeGroup":"ST_Contrato_Usuario","IsKey":"false","ReadOnly":"false","AttributeType":"int","Description":"Preposto","Length":"6","Decimals":"0","Signed":"false","AllowDBNulls":"true","Domain":"Codigo","InternalName":"Contrato_PrepostoCod","InputPicture":"ZZZZZ9","Type":"xs:int"},{"Name":"Contrato_PrepostoPesCod","Caption":"Preposto","default":"0","IsKey":"false","ReadOnly":"true","AttributeType":"int","Description":"Preposto","Length":"6","Decimals":"0","Signed":"false","AllowDBNulls":"true","Domain":"Codigo","InternalName":"Contrato_PrepostoPesCod","InputPicture":"ZZZZZ9","Type":"xs:int"},{"Name":"Contrato_PrepostoNom","Caption":"Preposto","default":"","IsKey":"false","ReadOnly":"true","AttributeType":"char","Description":"Preposto","Length":"100","Decimals":"0","Signed":"false","AllowDBNulls":"true","Domain":"Nome100","InternalName":"Contrato_PrepostoNom","InputPicture":"@!","Type":"xs:string"},{"Name":"Contrato_PrdFtrCada","Caption":"Faturamento","default":"","IsKey":"false","ReadOnly":"false","AttributeType":"char","Description":"Faturamento","Length":"1","Decimals":"0","Signed":"false","AllowDBNulls":"true","InternalName":"Contrato_PrdFtrCada","InputPicture":"","Type":"xs:string"},{"Name":"Contrato_LmtFtr","Caption":"Limite de Faturamento","default":"0","IsKey":"false","ReadOnly":"false","AttributeType":"int","Description":"Limite de Faturamento","Length":"13","Decimals":"5","Signed":"false","AllowDBNulls":"true","Domain":"PontosDeFuncao","InternalName":"Contrato_LmtFtr","InputPicture":"ZZ,ZZZ,ZZ9.999","Type":"xs:decimal"},{"Name":"Contrato_PrdFtrIni","Caption":"Inicio","default":"0","IsKey":"false","ReadOnly":"false","AttributeType":"int","Description":"Inicio","Length":"4","Decimals":"0","Signed":"false","AllowDBNulls":"true","InternalName":"Contrato_PrdFtrIni","InputPicture":"ZZZ9","Type":"xs:int"},{"Name":"Contrato_PrdFtrFim","Caption":"Fim","default":"0","IsKey":"false","ReadOnly":"false","AttributeType":"int","Description":"Fim","Length":"4","Decimals":"0","Signed":"false","AllowDBNulls":"true","InternalName":"Contrato_PrdFtrFim","InputPicture":"ZZZ9","Type":"xs:int"},{"Name":"Contrato_Identificacao","Caption":"Identificação do Contrato ","default":"","IsKey":"false","ReadOnly":"true","AttributeType":"svchar","Description":"Identificação do Contrato ","Length":"100","Decimals":"0","Signed":"false","AllowDBNulls":"true","InternalName":"Contrato_Identificacao","InputPicture":"","Type":"xs:string"}]}]},"Relations":{"ManyToOne":{"references":[{"Name":"ContratoContrato_Codigo","BusinessComponent":"Contrato","LevelName":"Contrato","Description":"Contrato","ForeignKey":{"KeyAttributes":[{"Name":"Contrato_Codigo","Type":"int"}]},"InferredAttributes":{"Attributes":[{"Name":"Contrato_DataFimTA","Type":"date"}]}},{"Name":"ContratoContrato_Codigo","BusinessComponent":"Contrato","LevelName":"Contrato","Description":"Contrato","ForeignKey":{"KeyAttributes":[{"Name":"Contrato_Codigo","Type":"int"}]},"InferredAttributes":{"Attributes":[{"Name":"Contrato_DataInicioTA","Type":"date"}]}},{"Name":"PessoaContrato_PrepostoPesCod","BusinessComponent":"Pessoa","LevelName":"Contrato","Description":"Pessoas","ForeignKey":{"KeyAttributes":[{"Name":"Contrato_PrepostoPesCod","Type":"int","AtributeSuperType":"Pessoa_Codigo"}]},"InferredAttributes":{"Attributes":[{"Name":"Contrato_PrepostoNom","Type":"char","AtributeSuperType":"Pessoa_Nome"}]}},{"Name":"PessoaContratada_PessoaCod","BusinessComponent":"Pessoa","LevelName":"Contrato","Description":"Pessoas","ForeignKey":{"KeyAttributes":[{"Name":"Contratada_PessoaCod","Type":"int","AtributeSuperType":"Pessoa_Codigo"}]},"InferredAttributes":{"Attributes":[{"Name":"Contratada_PessoaNom","Type":"char","AtributeSuperType":"Pessoa_Nome"},{"Name":"Contratada_PessoaCNPJ","Type":"svchar","AtributeSuperType":"Pessoa_Docto"}]}},{"Name":"UsuarioContrato_PrepostoCod","BusinessComponent":"Usuario","LevelName":"Contrato","Description":"Usuario","ForeignKey":{"KeyAttributes":[{"Name":"Contrato_PrepostoCod","Type":"int","AtributeSuperType":"Usuario_Codigo"}]},"InferredAttributes":{"Attributes":[{"Name":"Contrato_PrepostoPesCod","Type":"int","AtributeSuperType":"Usuario_PessoaCod"},{"Name":"Contrato_PrepostoNom","Type":"char"}]}},{"Name":"AreaTrabalhoContrato_AreaTrabalhoCod","BusinessComponent":"AreaTrabalho","LevelName":"Contrato","Description":"Área de Trabalho","ForeignKey":{"KeyAttributes":[{"Name":"Contrato_AreaTrabalhoCod","Type":"int","AtributeSuperType":"AreaTrabalho_Codigo"}]},"InferredAttributes":{"Attributes":[{"Name":"Contrato_AreaTrabalhoDes","Type":"svchar","AtributeSuperType":"AreaTrabalho_Descricao"}]}},{"Name":"ContratadaContratada_Codigo","BusinessComponent":"Contratada","LevelName":"Contrato","Description":"Contratada","ForeignKey":{"KeyAttributes":[{"Name":"Contratada_Codigo","Type":"int"}]},"InferredAttributes":{"Attributes":[{"Name":"Contratada_Sigla","Type":"char"},{"Name":"Contratada_TipoFabrica","Type":"char"},{"Name":"Contratada_PessoaCod","Type":"int"},{"Name":"Contratada_PessoaNom","Type":"char"},{"Name":"Contratada_PessoaCNPJ","Type":"svchar"},{"Name":"Contratada_PessoaNom","Type":"char"},{"Name":"Contratada_PessoaCNPJ","Type":"svchar"}]}}]}}}
}
