{

"GxObject":{"ObjectType":"BusinessComponent","Name":"Contratada","idConnectivitySupport":"idInherit","Structure":{"Levels":[{"Name":"Contratada","ParentLevel":"","LevelName":"Contratada","Description":"Contratada","Attributes":[{"Name":"Contratada_Codigo","Caption":"Contratada","default":"0","AutoNumber":"true","IsKey":"true","ReadOnly":"false","AttributeType":"int","Description":"Contratada","Length":"6","Decimals":"0","Signed":"false","AllowDBNulls":"false","Domain":"Codigo","InternalName":"Contratada_Codigo","InputPicture":"ZZZZZ9","Type":"xs:int"},{"Name":"Contratada_AreaTrabalhoCod","Caption":"Área de Trabalho","default":"0","SuperType":"AreaTrabalho_Codigo","SubtypeGroup":"ST_Contratada_AreaTrabalho","IsKey":"false","ReadOnly":"false","AttributeType":"int","Description":"Área de Trabalho","Length":"6","Decimals":"0","Signed":"false","AllowDBNulls":"false","Domain":"Codigo","InternalName":"Contratada_AreaTrabalhoCod","InputPicture":"ZZZZZ9","Type":"xs:int"},{"Name":"Contratada_AreaTrabalhoDes","Caption":"Área de Trabalho","default":"","IsKey":"false","ReadOnly":"true","AttributeType":"svchar","Description":"Área de Trabalho","Length":"50","Decimals":"0","Signed":"false","AllowDBNulls":"true","Domain":"Descricao","InternalName":"Contratada_AreaTrabalhoDes","InputPicture":"@!","Type":"xs:string"},{"Name":"Contratada_AreaTrbClcPFnl","Caption":"Cácluclo P Final","default":"","IsKey":"false","ReadOnly":"true","AttributeType":"char","Description":"Cácluclo P Final","Length":"2","Decimals":"0","Signed":"false","AllowDBNulls":"true","Domain":"CalculoPFinal","InternalName":"Contratada_AreaTrbClcPFnl","InputPicture":"","Type":"xs:string"},{"Name":"Contratada_AreaTrbSrvPdr","Caption":"Serviço padrão","default":"0","IsKey":"false","ReadOnly":"true","AttributeType":"int","Description":"Serviço padrão","Length":"6","Decimals":"0","Signed":"false","AllowDBNulls":"true","Domain":"Codigo","InternalName":"Contratada_AreaTrbSrvPdr","InputPicture":"ZZZZZ9","Type":"xs:int"},{"Name":"Contratada_PessoaCod","Caption":"Cód. da Pessoa","default":"0","SuperType":"Pessoa_Codigo","SubtypeGroup":"ST_Contratada_Pessoa","IsKey":"false","ReadOnly":"false","AttributeType":"int","Description":"Cód. da Pessoa","Length":"6","Decimals":"0","Signed":"false","AllowDBNulls":"false","Domain":"Codigo","InternalName":"Contratada_PessoaCod","InputPicture":"ZZZZZ9","Type":"xs:int"},{"Name":"Contratada_PessoaNom","Caption":"Nome","default":"","IsKey":"false","ReadOnly":"true","AttributeType":"char","Description":"Nome","Length":"100","Decimals":"0","Signed":"false","AllowDBNulls":"true","Domain":"Nome100","InternalName":"Contratada_PessoaNom","InputPicture":"@!","Type":"xs:string"},{"Name":"Contratada_PessoaCNPJ","Caption":" CNPJ da Pessoa","default":"","IsKey":"false","ReadOnly":"true","AttributeType":"svchar","Description":" CNPJ da Pessoa","Length":"15","Decimals":"0","Signed":"false","AllowDBNulls":"true","Domain":"Docto","InternalName":"Contratada_PessoaCNPJ","InputPicture":"","Type":"xs:string"},{"Name":"Pessoa_IE","Caption":"Inscrição Estadual","default":"","IsKey":"false","ReadOnly":"true","AttributeType":"char","Description":"Inscrição Estadual","Length":"15","Decimals":"0","Signed":"false","AllowDBNulls":"true","Domain":"IE","Domain":"IE","InternalName":"Pessoa_IE","InputPicture":"","Type":"xs:string"},{"Name":"Pessoa_Endereco","Caption":"Endereço","default":"","IsKey":"false","ReadOnly":"true","AttributeType":"svchar","Description":"Endereço","Length":"100","Decimals":"0","Signed":"false","AllowDBNulls":"true","InternalName":"Pessoa_Endereco","InputPicture":"","Type":"xs:string"},{"Name":"Pessoa_CEP","Caption":"CEP","default":"","IsKey":"false","ReadOnly":"true","AttributeType":"char","Description":"CEP","Length":"10","Decimals":"0","Signed":"false","AllowDBNulls":"true","InternalName":"Pessoa_CEP","InputPicture":"","Type":"xs:string"},{"Name":"Pessoa_Telefone","Caption":"Telefone","default":"","IsKey":"false","ReadOnly":"true","AttributeType":"char","Description":"Telefone","Length":"15","Decimals":"0","Signed":"false","AllowDBNulls":"true","InternalName":"Pessoa_Telefone","InputPicture":"","Type":"xs:string"},{"Name":"Pessoa_Fax","Caption":"Fax","default":"","IsKey":"false","ReadOnly":"true","AttributeType":"char","Description":"Fax","Length":"15","Decimals":"0","Signed":"false","AllowDBNulls":"true","InternalName":"Pessoa_Fax","InputPicture":"","Type":"xs:string"},{"Name":"Contratada_Sigla","Caption":"Sigla","default":"","IsKey":"false","ReadOnly":"false","AttributeType":"char","Description":"Sigla","Length":"15","Decimals":"0","Signed":"false","AllowDBNulls":"false","Domain":"Sigla","InternalName":"Contratada_Sigla","InputPicture":"@!","Type":"xs:string"},{"Name":"Contratada_TipoFabrica","Caption":"Tipo","default":"","IsKey":"false","ReadOnly":"false","AttributeType":"char","Description":"Tipo","Length":"1","Decimals":"0","Signed":"false","IsEnumeration":"true","EnumerationType":"TipoFabrica","AllowDBNulls":"false","Domain":"TipoFabrica","InternalName":"Contratada_TipoFabrica","InputPicture":"","Type":"xs:string"},{"Name":"Contratada_BancoNome","Caption":"Banco","default":"","IsKey":"false","ReadOnly":"false","AttributeType":"char","Description":"Banco","Length":"50","Decimals":"0","Signed":"false","AllowDBNulls":"true","Domain":"Nome","InternalName":"Contratada_BancoNome","InputPicture":"@!","Type":"xs:string"},{"Name":"Contratada_BancoNro","Caption":"Número","default":"","IsKey":"false","ReadOnly":"false","AttributeType":"char","Description":"Número","Length":"6","Decimals":"0","Signed":"false","AllowDBNulls":"true","Domain":"NumeroBanco","InternalName":"Contratada_BancoNro","InputPicture":"","Type":"xs:string"},{"Name":"Contratada_AgenciaNome","Caption":"Agência","default":"","IsKey":"false","ReadOnly":"false","AttributeType":"char","Description":"Agência","Length":"50","Decimals":"0","Signed":"false","AllowDBNulls":"true","Domain":"Nome","InternalName":"Contratada_AgenciaNome","InputPicture":"@!","Type":"xs:string"},{"Name":"Contratada_AgenciaNro","Caption":"Número","default":"","IsKey":"false","ReadOnly":"false","AttributeType":"char","Description":"Número","Length":"10","Decimals":"0","Signed":"false","AllowDBNulls":"true","Domain":"Agencia","InternalName":"Contratada_AgenciaNro","InputPicture":"","Type":"xs:string"},{"Name":"Contratada_ContaCorrente","Caption":"Conta Corrente","default":"","IsKey":"false","ReadOnly":"false","AttributeType":"char","Description":"Conta Corrente","Length":"10","Decimals":"0","Signed":"false","AllowDBNulls":"true","Domain":"ContaCorrente","InternalName":"Contratada_ContaCorrente","InputPicture":"","Type":"xs:string"},{"Name":"Contratada_MunicipioCod","Caption":"Municipio","default":"0","SuperType":"Municipio_Codigo","SubtypeGroup":"ST_Contratada_Municipio","IsKey":"false","ReadOnly":"false","AttributeType":"int","Description":"Municipio","Length":"6","Decimals":"0","Signed":"false","AllowDBNulls":"true","Domain":"Codigo","InternalName":"Contratada_MunicipioCod","InputPicture":"ZZZZZ9","Type":"xs:int"},{"Name":"Contratada_UF","Caption":"Estado","default":"","IsKey":"false","ReadOnly":"true","AttributeType":"char","Description":"Estado","Length":"2","Decimals":"0","Signed":"false","AllowDBNulls":"true","Domain":"UF","InternalName":"Contratada_UF","InputPicture":"@!","Type":"xs:string"},{"Name":"Contratada_OS","Caption":"Última OS","default":"0","IsKey":"false","ReadOnly":"false","AttributeType":"int","Description":"Última OS","Length":"8","Decimals":"0","Signed":"false","AllowDBNulls":"true","InternalName":"Contratada_OS","InputPicture":"ZZZZZZZ9","Type":"xs:int"},{"Name":"Contratada_SS","Caption":"Última SS","default":"0","IsKey":"false","ReadOnly":"false","AttributeType":"int","Description":"Última SS","Length":"8","Decimals":"0","Signed":"false","AllowDBNulls":"true","InternalName":"Contratada_SS","InputPicture":"ZZZZZZZ9","Type":"xs:int"},{"Name":"Contratada_Lote","Caption":"Último Lote","default":"0","IsKey":"false","ReadOnly":"false","AttributeType":"int","Description":"Último Lote","Length":"4","Decimals":"0","Signed":"false","AllowDBNulls":"true","InternalName":"Contratada_Lote","InputPicture":"ZZZ9","Type":"xs:int"},{"Name":"Contratada_LogoArquivo","Caption":"Logomarca","default":"","IsKey":"false","ReadOnly":"false","AttributeType":"bitstr","Description":"Logomarca","Length":"4","Decimals":"0","Signed":"false","AllowDBNulls":"true","InternalName":"Contratada_LogoArquivo","InputPicture":"","Type":"xs:string"},{"Name":"Contratada_UsaOSistema","Caption":"Usa o Sistema","default":"","IsKey":"false","ReadOnly":"false","AttributeType":"boolean","Description":"Usa o Sistema","Length":"4","Decimals":"0","Signed":"false","AllowDBNulls":"true","Domain":"Flag","InternalName":"Contratada_UsaOSistema","InputPicture":"","Type":"xs:string"},{"Name":"Contratada_OSPreferencial","Caption":"Atendimento preferencial","default":"","IsKey":"false","ReadOnly":"false","AttributeType":"boolean","Description":"Atendimento preferencial","Length":"4","Decimals":"0","Signed":"false","AllowDBNulls":"true","Domain":"SimNao","InternalName":"Contratada_OSPreferencial","InputPicture":"","Type":"xs:string"},{"Name":"Contratada_CntPadrao","Caption":"Contrato padrão","default":"0","IsKey":"false","ReadOnly":"false","AttributeType":"int","Description":"Contrato padrão","Length":"6","Decimals":"0","Signed":"false","AllowDBNulls":"true","Domain":"Codigo","InternalName":"Contratada_CntPadrao","InputPicture":"ZZZZZ9","Type":"xs:int"},{"Name":"Contratada_Ativo","Caption":"Ativo","default":"","IsKey":"false","ReadOnly":"false","AttributeType":"boolean","Description":"Ativo","Length":"4","Decimals":"0","Signed":"false","AllowDBNulls":"false","Domain":"Flag","InternalName":"Contratada_Ativo","InputPicture":"","Type":"xs:string"},{"Name":"Contratada_Logo","Caption":"Logomarca","default":"","IsKey":"false","ReadOnly":"false","AttributeType":"bits","Description":"Logomarca","Length":"4","Decimals":"0","Signed":"false","AllowDBNulls":"true","InternalName":"Contratada_Logo","InputPicture":"","Type":"xs:string"},{"Name":"Contratada_LogoTipoArq","Caption":"Tipo","default":"","IsKey":"false","ReadOnly":"false","AttributeType":"char","Description":"Tipo","Length":"10","Decimals":"0","Signed":"false","AllowDBNulls":"true","Domain":"TipoArq","InternalName":"Contratada_LogoTipoArq","InputPicture":"","Type":"xs:string"},{"Name":"Contratada_LogoNomeArq","Caption":"Nome de arquivo","default":"","IsKey":"false","ReadOnly":"false","AttributeType":"char","Description":"Nome de arquivo","Length":"50","Decimals":"0","Signed":"false","AllowDBNulls":"true","Domain":"NomeArq","InternalName":"Contratada_LogoNomeArq","InputPicture":"","Type":"xs:string"}]}]},"Relations":{"ManyToOne":{"references":[{"Name":"AreaTrabalhoContratada_AreaTrabalhoCod","BusinessComponent":"AreaTrabalho","LevelName":"Contratada","Description":"Área de Trabalho","ForeignKey":{"KeyAttributes":[{"Name":"Contratada_AreaTrabalhoCod","Type":"int","AtributeSuperType":"AreaTrabalho_Codigo"}]},"InferredAttributes":{"Attributes":[{"Name":"Contratada_AreaTrabalhoDes","Type":"svchar","AtributeSuperType":"AreaTrabalho_Descricao"},{"Name":"Contratada_AreaTrbClcPFnl","Type":"char","AtributeSuperType":"AreaTrabalho_CalculoPFinal"},{"Name":"Contratada_AreaTrbSrvPdr","Type":"int","AtributeSuperType":"AreaTrabalho_ServicoPadrao"}]}},{"Name":"PessoaContratada_PessoaCod","BusinessComponent":"Pessoa","LevelName":"Contratada","Description":"Pessoas","ForeignKey":{"KeyAttributes":[{"Name":"Contratada_PessoaCod","Type":"int","AtributeSuperType":"Pessoa_Codigo"}]},"InferredAttributes":{"Attributes":[{"Name":"Contratada_PessoaNom","Type":"char","AtributeSuperType":"Pessoa_Nome"},{"Name":"Contratada_PessoaCNPJ","Type":"svchar","AtributeSuperType":"Pessoa_Docto"},{"Name":"Pessoa_IE","Type":"char"},{"Name":"Pessoa_Endereco","Type":"svchar"},{"Name":"Pessoa_CEP","Type":"char"},{"Name":"Pessoa_Telefone","Type":"char"},{"Name":"Pessoa_Fax","Type":"char"}]}}]}}}
}
