{

"GxObject":{"ObjectType":"BusinessComponent","Name":"ContratoGestor","idConnectivitySupport":"idInherit","Structure":{"Levels":[{"Name":"Contratogestor","ParentLevel":"","LevelName":"ContratoGestor","Description":"Gestor do Contrato","Attributes":[{"Name":"ContratoGestor_ContratoCod","Caption":"Contrato","default":"0","SuperType":"Contrato_Codigo","SubtypeGroup":"ST_ContratoGestor_Contrato","IsKey":"true","ReadOnly":"false","AttributeType":"int","Description":"Contrato","Length":"6","Decimals":"0","Signed":"false","AllowDBNulls":"false","Domain":"Codigo","InternalName":"ContratoGestor_ContratoCod","InputPicture":"ZZZZZ9","Type":"xs:int"},{"Name":"ContratoGestor_ContratadaCod","Caption":"Contratada","default":"0","SuperType":"Contratada_Codigo","SubtypeGroup":"ST_ContratoGestor_Contrato","IsKey":"false","ReadOnly":"true","AttributeType":"int","Description":"Contratada","Length":"6","Decimals":"0","Signed":"false","AllowDBNulls":"true","Domain":"Codigo","InternalName":"ContratoGestor_ContratadaCod","InputPicture":"ZZZZZ9","Type":"xs:int"},{"Name":"ContratoGestor_ContratadaSigla","Caption":"Contratada","default":"","IsKey":"false","ReadOnly":"true","AttributeType":"char","Description":"Contratada","Length":"15","Decimals":"0","Signed":"false","AllowDBNulls":"true","Domain":"Sigla","InternalName":"ContratoGestor_ContratadaSigla","DescriptionAtt":"true","InputPicture":"@!","Type":"xs:string"},{"Name":"ContratoGestor_ContratadaTipo","Caption":"Tipo de Fábrica","default":"","IsKey":"false","ReadOnly":"true","AttributeType":"char","Description":"Tipo de Fábrica","Length":"1","Decimals":"0","Signed":"false","IsEnumeration":"true","EnumerationType":"TipoFabrica","AllowDBNulls":"true","Domain":"TipoFabrica","InternalName":"ContratoGestor_ContratadaTipo","InputPicture":"","Type":"xs:string"},{"Name":"ContratoGestor_ContratadaAreaCod","Caption":"Codigo da Área de Trabalho","default":"0","IsKey":"false","ReadOnly":"true","AttributeType":"int","Description":"Codigo da Área de Trabalho","Length":"6","Decimals":"0","Signed":"false","AllowDBNulls":"true","Domain":"Codigo","InternalName":"ContratoGestor_ContratadaAreaCod","InputPicture":"ZZZZZ9","Type":"xs:int"},{"Name":"ContratoGestor_ContratadaAreaDes","Caption":"Área de Trabalho","default":"","IsKey":"false","ReadOnly":"true","AttributeType":"svchar","Description":"Área de Trabalho","Length":"50","Decimals":"0","Signed":"false","AllowDBNulls":"true","Domain":"Descricao","InternalName":"ContratoGestor_ContratadaAreaDes","InputPicture":"@!","Type":"xs:string"},{"Name":"ContratoGestor_UsuarioCod","Caption":"Gestor","default":"0","SuperType":"Usuario_Codigo","SubtypeGroup":"ST_ContratoGestor_Usuario","IsKey":"true","ReadOnly":"false","AttributeType":"int","Description":"Gestor","Length":"6","Decimals":"0","Signed":"false","AllowDBNulls":"false","Domain":"Codigo","InternalName":"ContratoGestor_UsuarioCod","InputPicture":"ZZZZZ9","Type":"xs:int"},{"Name":"ContratoGestor_UsuarioPesCod","Caption":"Gestor","default":"0","IsKey":"false","ReadOnly":"true","AttributeType":"int","Description":"Gestor","Length":"6","Decimals":"0","Signed":"false","AllowDBNulls":"true","Domain":"Codigo","InternalName":"ContratoGestor_UsuarioPesCod","InputPicture":"ZZZZZ9","Type":"xs:int"},{"Name":"ContratoGestor_UsuarioPesNom","Caption":"Gestor","default":"","IsKey":"false","ReadOnly":"true","AttributeType":"char","Description":"Gestor","Length":"100","Decimals":"0","Signed":"false","AllowDBNulls":"true","Domain":"Nome100","InternalName":"ContratoGestor_UsuarioPesNom","InputPicture":"@!","Type":"xs:string"},{"Name":"ContratoGestor_UsuarioEhContratante","Caption":"Contrato Gestor_Usuario Eh Contratante","default":"","IsKey":"false","ReadOnly":"true","AttributeType":"boolean","Description":"Contrato Gestor_Usuario Eh Contratante","Length":"4","Decimals":"0","Signed":"false","AllowDBNulls":"true","Domain":"Flag","InternalName":"ContratoGestor_UsuarioEhContratante","InputPicture":"","Type":"xs:string"},{"Name":"ContratoGestor_UsuarioAtv","Caption":"Usuário ativo","default":"","IsKey":"false","ReadOnly":"true","AttributeType":"boolean","Description":"Usuário ativo","Length":"4","Decimals":"0","Signed":"false","AllowDBNulls":"true","Domain":"Flag","InternalName":"ContratoGestor_UsuarioAtv","InputPicture":"","Type":"xs:string"},{"Name":"ContratoGestor_Tipo","Caption":"Tipo","default":"0","IsKey":"false","ReadOnly":"false","AttributeType":"int","Description":"Tipo","Length":"1","Decimals":"0","Signed":"false","IsEnumeration":"true","EnumerationType":"TipoGestor","AllowDBNulls":"true","Domain":"TipoGestor","InternalName":"ContratoGestor_Tipo","InputPicture":"9","Type":"xs:int"}]}]},"Relations":{"ManyToOne":{"references":[{"Name":"PessoaContratoGestor_UsuarioPesCod","BusinessComponent":"Pessoa","LevelName":"ContratoGestor","Description":"Pessoas","ForeignKey":{"KeyAttributes":[{"Name":"ContratoGestor_UsuarioPesCod","Type":"int","AtributeSuperType":"Pessoa_Codigo"}]},"InferredAttributes":{"Attributes":[{"Name":"ContratoGestor_UsuarioPesNom","Type":"char","AtributeSuperType":"Pessoa_Nome"}]}},{"Name":"AreaTrabalhoContratoGestor_ContratadaAreaCod","BusinessComponent":"AreaTrabalho","LevelName":"ContratoGestor","Description":"Área de Trabalho","ForeignKey":{"KeyAttributes":[{"Name":"ContratoGestor_ContratadaAreaCod","Type":"int","AtributeSuperType":"AreaTrabalho_Codigo"}]},"InferredAttributes":{"Attributes":[{"Name":"ContratoGestor_ContratadaAreaDes","Type":"svchar","AtributeSuperType":"AreaTrabalho_Descricao"}]}},{"Name":"ContratadaContratoGestor_ContratadaCod","BusinessComponent":"Contratada","LevelName":"ContratoGestor","Description":"Contratada","ForeignKey":{"KeyAttributes":[{"Name":"ContratoGestor_ContratadaCod","Type":"int","AtributeSuperType":"Contratada_Codigo"}]},"InferredAttributes":{"Attributes":[{"Name":"ContratoGestor_ContratadaSigla","Type":"char","AtributeSuperType":"Contratada_Sigla"},{"Name":"ContratoGestor_ContratadaTipo","Type":"char","AtributeSuperType":"Contratada_TipoFabrica"}]}},{"Name":"UsuarioContratoGestor_UsuarioCod","BusinessComponent":"Usuario","LevelName":"ContratoGestor","Description":"Usuario","ForeignKey":{"KeyAttributes":[{"Name":"ContratoGestor_UsuarioCod","Type":"int","AtributeSuperType":"Usuario_Codigo"}]},"InferredAttributes":{"Attributes":[{"Name":"ContratoGestor_UsuarioAtv","Type":"boolean","AtributeSuperType":"Usuario_Ativo"},{"Name":"ContratoGestor_UsuarioPesCod","Type":"int","AtributeSuperType":"Usuario_PessoaCod"},{"Name":"ContratoGestor_UsuarioPesNom","Type":"char"}]}},{"Name":"ContratoContratoGestor_ContratoCod","BusinessComponent":"Contrato","LevelName":"ContratoGestor","Description":"Contrato","ForeignKey":{"KeyAttributes":[{"Name":"ContratoGestor_ContratoCod","Type":"int","AtributeSuperType":"Contrato_Codigo"}]},"InferredAttributes":{"Attributes":[{"Name":"ContratoGestor_ContratadaCod","Type":"int","AtributeSuperType":"Contratada_Codigo"},{"Name":"ContratoGestor_ContratadaAreaCod","Type":"int","AtributeSuperType":"Contrato_AreaTrabalhoCod"},{"Name":"ContratoGestor_ContratadaSigla","Type":"char"},{"Name":"ContratoGestor_ContratadaTipo","Type":"char"},{"Name":"ContratoGestor_ContratadaAreaDes","Type":"svchar"},{"Name":"ContratoGestor_ContratadaAreaDes","Type":"svchar"},{"Name":"ContratoGestor_ContratadaSigla","Type":"char"},{"Name":"ContratoGestor_ContratadaTipo","Type":"char"}]}}]}}}
}
