{

"GxObject":{"ObjectType":"BusinessComponent","Name":"FuncaoDadosTabela","idConnectivitySupport":"idInherit","Structure":{"Levels":[{"Name":"Funcaodadostabela","ParentLevel":"","LevelName":"FuncaoDadosTabela","Description":"Tabelas da Função de Dados","Attributes":[{"Name":"FuncaoDados_Codigo","Caption":"Código","default":"0","IsKey":"true","ReadOnly":"false","AttributeType":"int","Description":"Código","Length":"6","Decimals":"0","Signed":"false","AllowDBNulls":"false","Domain":"Codigo","InternalName":"FuncaoDados_Codigo","InputPicture":"ZZZZZ9","Type":"xs:int"},{"Name":"FuncaoDados_Nome","Caption":"Função Dados","default":"","IsKey":"false","ReadOnly":"true","AttributeType":"svchar","Description":"Função Dados","Length":"200","Decimals":"0","Signed":"false","AllowDBNulls":"true","InternalName":"FuncaoDados_Nome","InputPicture":"","Type":"xs:string"},{"Name":"Tabela_Codigo","Caption":"Código","default":"0","IsKey":"true","ReadOnly":"false","AttributeType":"int","Description":"Código","Length":"6","Decimals":"0","Signed":"false","AllowDBNulls":"false","Domain":"Codigo","InternalName":"Tabela_Codigo","InputPicture":"ZZZZZ9","Type":"xs:int"},{"Name":"Tabela_Nome","Caption":"Nome","default":"","IsKey":"false","ReadOnly":"true","AttributeType":"char","Description":"Nome","Length":"50","Decimals":"0","Signed":"false","AllowDBNulls":"true","Domain":"Nome","InternalName":"Tabela_Nome","InputPicture":"@!","Type":"xs:string"}]}]},"Relations":{"ManyToOne":{"references":[{"Name":"TabelaTabela_Codigo","BusinessComponent":"Tabela","LevelName":"FuncaoDadosTabela","Description":"Tabela","ForeignKey":{"KeyAttributes":[{"Name":"Tabela_Codigo","Type":"int"}]},"InferredAttributes":{"Attributes":[{"Name":"Tabela_Nome","Type":"char"}]}}]}}}
}
