{

"GxObject":{"ObjectType":"BusinessComponent","Name":"Tmp_File","idConnectivitySupport":"idInherit","Structure":{"Levels":[{"Name":"Tmp_file","ParentLevel":"","LevelName":"Tmp_File","Description":"Arquivo a processar:","Attributes":[{"Name":"File_UsuarioCod","Caption":"Usuario","default":"0","SuperType":"Usuario_Codigo","SubtypeGroup":"ST_File_Usuario","IsKey":"true","ReadOnly":"false","AttributeType":"int","Description":"Usuario","Length":"6","Decimals":"0","Signed":"false","AllowDBNulls":"false","Domain":"Codigo","InternalName":"File_UsuarioCod","InputPicture":"ZZZZZ9","Type":"xs:int"},{"Name":"File_Row","Caption":"Nº","default":"0","IsKey":"true","ReadOnly":"false","AttributeType":"int","Description":"Nº","Length":"8","Decimals":"0","Signed":"false","AllowDBNulls":"false","InternalName":"File_Row","InputPicture":"ZZZZZZZ9","Type":"xs:int"},{"Name":"File_Col1","Caption":"Coluna 1","default":"","IsKey":"false","ReadOnly":"false","AttributeType":"svchar","Description":"Coluna 1","Length":"200","Decimals":"0","Signed":"false","AllowDBNulls":"true","InternalName":"File_Col1","DescriptionAtt":"true","InputPicture":"","Type":"xs:string"},{"Name":"File_Col2","Caption":"Coluna 2","default":"","IsKey":"false","ReadOnly":"false","AttributeType":"svchar","Description":"Coluna 2","Length":"200","Decimals":"0","Signed":"false","AllowDBNulls":"true","InternalName":"File_Col2","InputPicture":"","Type":"xs:string"},{"Name":"File_Col3","Caption":"Coluna 3","default":"","IsKey":"false","ReadOnly":"false","AttributeType":"svchar","Description":"Coluna 3","Length":"200","Decimals":"0","Signed":"false","AllowDBNulls":"true","InternalName":"File_Col3","InputPicture":"","Type":"xs:string"}]}]},"Relations":{"ManyToOne":{"references":[{"Name":"UsuarioFile_UsuarioCod","BusinessComponent":"Usuario","LevelName":"Tmp_File","Description":"Usuario","ForeignKey":{"KeyAttributes":[{"Name":"File_UsuarioCod","Type":"int","AtributeSuperType":"Usuario_Codigo"}]},"InferredAttributes":{"Attributes":[]}}]}}}
}
