{

"GxObject":{"ObjectType":"BusinessComponent","Name":"UsuarioPerfil","idConnectivitySupport":"idInherit","Structure":{"Levels":[{"Name":"Usuarioperfil","ParentLevel":"","LevelName":"UsuarioPerfil","Description":"Usuario x Perfil","Attributes":[{"Name":"Usuario_Codigo","Caption":"Código","default":"0","IsKey":"true","ReadOnly":"false","AttributeType":"int","Description":"Código","Length":"6","Decimals":"0","Signed":"false","AllowDBNulls":"false","Domain":"Codigo","InternalName":"Usuario_Codigo","InputPicture":"ZZZZZ9","Type":"xs:int"},{"Name":"Usuario_PessoaCod","Caption":"Cód. da Pessoa","default":"0","SuperType":"Pessoa_Codigo","SubtypeGroup":"ST_Usuario_Pessoa","IsKey":"false","ReadOnly":"true","AttributeType":"int","Description":"Cód. da Pessoa","Length":"6","Decimals":"0","Signed":"false","AllowDBNulls":"true","Domain":"Codigo","InternalName":"Usuario_PessoaCod","InputPicture":"ZZZZZ9","Type":"xs:int"},{"Name":"Usuario_PessoaNom","Caption":"Pessoa","default":"","IsKey":"false","ReadOnly":"true","AttributeType":"char","Description":"Pessoa","Length":"100","Decimals":"0","Signed":"false","AllowDBNulls":"true","Domain":"Nome100","InternalName":"Usuario_PessoaNom","InputPicture":"@!","Type":"xs:string"},{"Name":"Usuario_Nome","Caption":"Usuário","default":"","IsKey":"false","ReadOnly":"true","AttributeType":"char","Description":"Usuário","Length":"50","Decimals":"0","Signed":"false","AllowDBNulls":"true","Domain":"Nome","InternalName":"Usuario_Nome","InputPicture":"@!","Type":"xs:string"},{"Name":"Usuario_UserGamGuid","Caption":"Gam Guid","default":"","IsKey":"false","ReadOnly":"true","AttributeType":"char","Description":"Gam Guid","Length":"40","Decimals":"0","Signed":"false","AllowDBNulls":"true","Domain":"GAMGUID","InternalName":"Usuario_UserGamGuid","InputPicture":"","Type":"xs:string"},{"Name":"Perfil_Codigo","Caption":"Código","default":"0","IsKey":"true","ReadOnly":"false","AttributeType":"int","Description":"Código","Length":"6","Decimals":"0","Signed":"false","AllowDBNulls":"false","Domain":"Codigo","InternalName":"Perfil_Codigo","InputPicture":"ZZZZZ9","Type":"xs:int"},{"Name":"Perfil_AreaTrabalhoCod","Caption":"Cód. Área","default":"0","IsKey":"false","ReadOnly":"true","AttributeType":"int","Description":"Cód. Área","Length":"6","Decimals":"0","Signed":"false","AllowDBNulls":"true","Domain":"Codigo","InternalName":"Perfil_AreaTrabalhoCod","InputPicture":"ZZZZZ9","Type":"xs:int"},{"Name":"Perfil_Nome","Caption":"Nome","default":"","IsKey":"false","ReadOnly":"true","AttributeType":"char","Description":"Nome","Length":"50","Decimals":"0","Signed":"false","AllowDBNulls":"true","Domain":"Nome","InternalName":"Perfil_Nome","DescriptionAtt":"true","InputPicture":"@!","Type":"xs:string"},{"Name":"Perfil_Tipo","Caption":"Tipo do Perfil","default":"0","IsKey":"false","ReadOnly":"true","AttributeType":"int","Description":"Tipo do Perfil","Length":"4","Decimals":"0","Signed":"false","IsEnumeration":"true","EnumerationType":"TipoPerfil","AllowDBNulls":"true","Domain":"TipoPerfil","InternalName":"Perfil_Tipo","InputPicture":"ZZZ9","Type":"xs:int"},{"Name":"Perfil_GamId","Caption":"Gam Id","default":"0","IsKey":"false","ReadOnly":"true","AttributeType":"int","Description":"Gam Id","Length":"12","Decimals":"0","Signed":"false","AllowDBNulls":"true","Domain":"GAMKeyNumLong","InternalName":"Perfil_GamId","InputPicture":"ZZZZZZZZZZZ9","Type":"xs:int"},{"Name":"UsuarioPerfil_Display","Caption":"Display","default":"","IsKey":"false","ReadOnly":"false","AttributeType":"boolean","Description":"Display","Length":"4","Decimals":"0","Signed":"false","AllowDBNulls":"true","Domain":"Flag","InternalName":"UsuarioPerfil_Display","InputPicture":"","Type":"xs:string"},{"Name":"UsuarioPerfil_Insert","Caption":"Insert","default":"","IsKey":"false","ReadOnly":"false","AttributeType":"boolean","Description":"Insert","Length":"4","Decimals":"0","Signed":"false","AllowDBNulls":"true","Domain":"Flag","InternalName":"UsuarioPerfil_Insert","InputPicture":"","Type":"xs:string"},{"Name":"UsuarioPerfil_Update","Caption":"Update","default":"","IsKey":"false","ReadOnly":"false","AttributeType":"boolean","Description":"Update","Length":"4","Decimals":"0","Signed":"false","AllowDBNulls":"true","Domain":"Flag","InternalName":"UsuarioPerfil_Update","InputPicture":"","Type":"xs:string"},{"Name":"UsuarioPerfil_Delete","Caption":"Delete","default":"","IsKey":"false","ReadOnly":"false","AttributeType":"boolean","Description":"Delete","Length":"4","Decimals":"0","Signed":"false","AllowDBNulls":"true","Domain":"Flag","InternalName":"UsuarioPerfil_Delete","InputPicture":"","Type":"xs:string"},{"Name":"Perfil_Ativo","Caption":"Ativo","default":"","IsKey":"false","ReadOnly":"true","AttributeType":"boolean","Description":"Ativo","Length":"4","Decimals":"0","Signed":"false","AllowDBNulls":"true","Domain":"Flag","InternalName":"Perfil_Ativo","InputPicture":"","Type":"xs:string"}]}]},"Relations":{"ManyToOne":{"references":[{"Name":"PessoaUsuario_PessoaCod","BusinessComponent":"Pessoa","LevelName":"UsuarioPerfil","Description":"Pessoas","ForeignKey":{"KeyAttributes":[{"Name":"Usuario_PessoaCod","Type":"int","AtributeSuperType":"Pessoa_Codigo"}]},"InferredAttributes":{"Attributes":[{"Name":"Usuario_PessoaNom","Type":"char","AtributeSuperType":"Pessoa_Nome"}]}},{"Name":"PerfilPerfil_Codigo","BusinessComponent":"Perfil","LevelName":"UsuarioPerfil","Description":"Perfil","ForeignKey":{"KeyAttributes":[{"Name":"Perfil_Codigo","Type":"int"}]},"InferredAttributes":{"Attributes":[{"Name":"Perfil_Nome","Type":"char"},{"Name":"Perfil_Tipo","Type":"int"},{"Name":"Perfil_GamId","Type":"int"},{"Name":"Perfil_Ativo","Type":"boolean"},{"Name":"Perfil_AreaTrabalhoCod","Type":"int"}]}},{"Name":"UsuarioUsuario_Codigo","BusinessComponent":"Usuario","LevelName":"UsuarioPerfil","Description":"Usuario","ForeignKey":{"KeyAttributes":[{"Name":"Usuario_Codigo","Type":"int"}]},"InferredAttributes":{"Attributes":[{"Name":"Usuario_Nome","Type":"char"},{"Name":"Usuario_UserGamGuid","Type":"char"},{"Name":"Usuario_PessoaCod","Type":"int"},{"Name":"Usuario_PessoaNom","Type":"char"},{"Name":"Usuario_PessoaNom","Type":"char"}]}}]}}}
}
