/t:library
/w:0
/r:bin\Artech.Security.API.Common.dll

/r:bin\GXClasses.dll
/r:system.web.dll
/r:system.web.services.dll
/r:system.web.dll
/r:bin\Interop.GXOFFICE2Lib.dll
/r:bin\GxExcelI.dll
/r:bin\GxMail.dll
/r:system.dll
/r:system.data.dll
/r:system.data.dll
/r:bin\GeneXus.Programs.Common.dll
/r:GxBaseBuilder.dll
/out:bin\extrawwcontagemresultadowwaceitefaturamento.dll
prc_contagemresultado_pffinal.cs
wwpbaseobjects\savegridstate.cs
wwpbaseobjects\getwwptitlesettingsicons.cs
dp_servicoscontratados.cs
prc_osautomatica.cs
extrawwcontagemresultadowwaceitefaturamento.cs
prc_getvalorremuneracao.cs
exportreportextrawwcontagemresultadowwaceitefaturamento.cs
wwpbaseobjects\loadwwpcontext.cs
wwpbaseobjects\loadgridstate.cs
prc_jarecebido.cs
exportextrawwcontagemresultadowwaceitefaturamento.cs
