/t:library
/w:0
/r:bin\Artech.Security.API.Common.dll

/r:bin\GXClasses.dll
/r:system.web.dll
/r:system.web.services.dll
/r:system.web.dll
/r:bin\Interop.GXOFFICE2Lib.dll
/r:bin\GxExcelI.dll
/r:bin\GxMail.dll
/r:system.dll
/r:system.data.dll
/r:system.data.dll
/r:bin\GeneXus.Programs.Common.dll
/r:GxBaseBuilder.dll
/out:bin\extrawwcontagemresultadoextraselection.dll
prc_enviaremailsemnotificacao.cs
prc_usuariosparanotificar.cs
prc_contagemresultadonotificacao.cs
prc_contratantedousuario.cs
prc_contratovigencia.cs
dp_servicoscontratados.cs
prc_newosnaocnf.cs
exportreportextrawwcontagemresultadoextraselection.cs
prc_getvalorremuneracao.cs
contagemresultadonotificacao_bc.cs
prc_parametrossistemaimagem.cs
contagemresultadocontagens_bc.cs
audit_bc.cs
prc_enviaremailcsharp.cs
wwpbaseobjects\loadwwpcontext.cs
prc_inserepessoadadosbasicos.cs
prc_cstuntprdnrm.cs
prc_temsrvdocntcomvlr.cs
prc_getprodutividadedia.cs
prc_getparmindicedivergenciadaos.cs
prc_podedesativararea.cs
prc_inscontratogestor.cs
areatrabalho_bc.cs
prc_validatamanhoimagem.cs
prc_novocicloexecucao.cs
prc_usadodocontrato.cs
prc_lerplanilhacontagem.cs
wwpbaseobjects\savegridstate.cs
prc_renumerass.cs
prc_usuarioehcontratante.cs
loadauditcontrato.cs
prc_updcontagemresultadocontagens.cs
prc_inscontratocontratadainterna.cs
prc_tempndparahomologar.cs
contagemresultado_bc.cs
prc_contageresultado_esforcototal.cs
wwpbaseobjects\loadcontext.cs
prc_vincularanexoscompartilhadoscomos.cs
prc_newresultadocontagem.cs
pessoa_bc.cs
prc_calculodivergencia.cs
prc_osautomatica.cs
prc_validadocumento.cs
prc_adddiasuteis.cs
prc_getredmine.cs
prc_diasparaentrega.cs
prc_updosvnc.cs
prc_encerrarcicloexecucao.cs
prc_getparmindicedivergencia.cs
prc_upddpnhmlg.cs
prc_existecontratada.cs
contratante_bc.cs
prc_existedemanda.cs
prc_contratadadousuario.cs
rel_contagemos.cs
prc_newperfilgestor.cs
prc_newanexolote.cs
prc_retornacontratadapelocnpj.cs
prc_historicoconsumo.cs
prc_validaremail.cs
prc_demandatemerros.cs
loadauditcontratada.cs
prc_novapessoacontratante.cs
prc_gestorprepostocontrato.cs
prc_contagemresultado_pffinal.cs
prc_novapessoacontratada.cs
wwpbaseobjects\setwwpcontext.cs
loadauditcontagemresultado.cs
contrato_bc.cs
prc_gethmlgcompnd.cs
prc_updcontagem_deflator.cs
prc_prazodecorrecaodata.cs
prc_pagecount.cs
prc_aceiteenviaremaillote.cs
prc_jarecebido.cs
prc_usuarioehcontratantedaarea.cs
prc_contagemresultado_ultima.cs
prc_prepostogestor.cs
prc_updredmine.cs
prc_gethorasentrega.cs
prc_saldocontratocriar.cs
loadauditareatrabalho.cs
prc_setdataprvpgm.cs
prc_indicedivergencia.cs
exportextrawwcontagemresultadoextraselection.cs
prc_setdataentregaexecucao.cs
prc_datadeinicioutil.cs
prc_ssautomatica.cs
contratada_bc.cs
wwpbaseobjects\isauthorized.cs
prc_agruparparafaturamento.cs
prc_retornacontratantepelocnpj.cs
prc_ehservicodousuario.cs
prc_atualizavalorpf.cs
prc_ehferiado.cs
prc_buscaprioridadeos.cs
prc_concluirssosorigem.cs
rel_contagemgerencial2.cs
prc_disparoservicovinculado.cs
prc_usuarionotificanostatus.cs
prc_calculardivergencia.cs
prc_diasparacorrecao.cs
prc_diasentregadotpprz.cs
wwpbaseobjects\getwwptitlesettingsicons.cs
wwpbaseobjects\audittransaction.cs
prc_currentpage.cs
geralog.cs
prc_newevidenciademanda.cs
parametrossistema_bc.cs
wwpbaseobjects\loadgridstate.cs
prc_nadivergenciaficacom.cs
prc_diasuteisentre.cs
prc_enviaremail.cs
prc_diadisponivelagendaatendimento.cs
prc_pendenciasdaos.cs
loadauditcontratante.cs
prc_sistematembaseline.cs
prc_validaosfm.cs
prc_alterastatusdmn.cs
extrawwcontagemresultadoextraselection.cs
prc_putredminedata.cs
prc_getcontagemosvinculada.cs
prc_inslogresponsavel.cs
prc_corrigirdeflator.cs
prc_dpnparahomologar.cs
prc_temgestor.cs
prc_contagemresultadoalterastatus.cs
prc_dltcontagemresultado.cs
prc_temdpnhmlg.cs
prc_dltnaocnf.cs
prc_usuarioemailget.cs
prc_ssorigem.cs
