/t:library
/w:0
/r:bin\Artech.Security.API.Common.dll

/r:bin\GXClasses.dll
/r:system.web.dll
/r:system.web.services.dll
/r:system.web.dll
/r:bin\Interop.GXOFFICE2Lib.dll
/r:bin\GxExcelI.dll
/r:bin\GxMail.dll
/r:system.dll
/r:system.data.dll
/r:system.data.dll
/r:bin\GeneXus.Programs.Common.dll
/r:GxBaseBuilder.dll
/out:bin\getwwcontagemresultadofilterdata.dll
prc_existecontagem.cs
prc_contagemresultado_pffinal.cs
prc_pendenciasdaos.cs
prc_jarecebido.cs
prc_contageresultado_esforcototal.cs
wwpbaseobjects\loadwwpcontext.cs
getwwcontagemresultadofilterdata.cs
wwpbaseobjects\loadgridstate.cs
prc_getvalorremuneracao.cs
