/t:library
/w:0
/r:bin\Artech.Security.API.Common.dll

/r:bin\GXClasses.dll
/r:system.web.dll
/r:system.web.services.dll
/r:system.web.dll
/r:bin\Interop.GXOFFICE2Lib.dll
/r:bin\GxExcelI.dll
/r:bin\GxMail.dll
/r:system.dll
/r:system.data.dll
/r:system.data.dll
/r:bin\GeneXus.Programs.Common.dll
/r:GxBaseBuilder.dll
/out:bin\municipiocontratadawc.dll
wwpbaseobjects\loadgridstate.cs
prc_novapessoacontratante.cs
loadauditcontrato.cs
municipiocontratadawc.cs
prc_getredmine.cs
wwpbaseobjects\savegridstate.cs
audit_bc.cs
prc_podedesativararea.cs
prc_retornacontratantepelocnpj.cs
prc_inscontratogestor.cs
prc_enviaremail.cs
prc_usuarioehcontratantedaarea.cs
prc_inserepessoadadosbasicos.cs
wwpbaseobjects\setwwpcontext.cs
geralog.cs
prc_contagemresultadonotificacao.cs
prc_enviaremailcsharp.cs
wwpbaseobjects\audittransaction.cs
contrato_bc.cs
prc_saldocontratocriar.cs
prc_historicoconsumo.cs
pessoa_bc.cs
prc_validadocumento.cs
prc_updredmine.cs
prc_novapessoacontratada.cs
prc_prepostogestor.cs
prc_retornacontratadapelocnpj.cs
wwpbaseobjects\loadcontext.cs
prc_parametrossistemaimagem.cs
prc_validaremail.cs
prc_atualizavalorpf.cs
loadauditcontratada.cs
contagemresultadonotificacao_bc.cs
prc_validatamanhoimagem.cs
wwpbaseobjects\isauthorized.cs
loadauditcontratante.cs
prc_inscontratocontratadainterna.cs
wwpbaseobjects\loadwwpcontext.cs
areatrabalho_bc.cs
contratada_bc.cs
prc_temsrvdocntcomvlr.cs
loadauditareatrabalho.cs
prc_usuarioemailget.cs
contratante_bc.cs
prc_newperfilgestor.cs
prc_existecontratada.cs
parametrossistema_bc.cs
