/t:library
/w:0
/r:bin\Artech.Security.API.Common.dll

/r:bin\GXClasses.dll
/r:system.web.dll
/r:system.web.services.dll
/r:system.web.dll
/r:bin\Interop.GXOFFICE2Lib.dll
/r:bin\GxExcelI.dll
/r:bin\GxMail.dll
/r:system.dll
/r:system.data.dll
/r:system.data.dll
/r:bin\GeneXus.Programs.Common.dll
/r:GxBaseBuilder.dll
/out:bin\wp_lote.dll
wp_lote.cs
rel_contagemgerencial2.cs
rel_contagem.cs
rel_contagemta.cs
wwpbaseobjects\loadwwpcontext.cs
prc_osautomatica.cs
rel_contagemcapa.cs
loadtargets.cs
rel_contagemos.cs
