/t:library
/w:0
/r:bin\Artech.Security.API.Common.dll

/r:bin\GXClasses.dll
/r:system.web.dll
/r:system.web.services.dll
/r:system.web.dll
/r:bin\Interop.GXOFFICE2Lib.dll
/r:bin\GxExcelI.dll
/r:bin\GxMail.dll
/r:system.dll
/r:system.data.dll
/r:system.data.dll
/r:bin\GeneXus.Programs.Common.dll
/r:GxBaseBuilder.dll
/out:bin\wp_lote_nfe.dll
prc_usuarionotificanostatus.cs
prc_tempndparahomologar.cs
loadauditcontrato.cs
prc_getredmine.cs
prc_renumerass.cs
prc_enviaremailsemnotificacao.cs
prc_podedesativararea.cs
prc_retornacontratantepelocnpj.cs
prc_inscontratogestor.cs
prc_ssautomatica.cs
wwpbaseobjects\isauthorized.cs
prc_usuarioehcontratantedaarea.cs
prc_dpnparahomologar.cs
prc_usadodocontrato.cs
prc_contagemresultado_pffinal.cs
pessoa_bc.cs
prc_dltnaocnf.cs
wwpbaseobjects\setwwpcontext.cs
geralog.cs
prc_contagemresultadonotificacao.cs
prc_enviaremailcsharp.cs
prc_updlotenfe.cs
wwpbaseobjects\audittransaction.cs
prc_inslogresponsavel.cs
prc_saldocontratocriar.cs
prc_historicoconsumo.cs
prc_enviaremail.cs
prc_agruparparafaturamento.cs
prc_validadocumento.cs
prc_updredmine.cs
loadauditareatrabalho.cs
prc_prepostogestor.cs
prc_parametrossistemaimagem.cs
prc_novapessoacontratante.cs
prc_jarecebido.cs
wp_lote_nfe.cs
wwpbaseobjects\loadcontext.cs
prc_newanexolote.cs
prc_getvalorremuneracao.cs
prc_validaremail.cs
prc_atualizavalorpf.cs
prc_aceiteenviaremaillote.cs
prc_contratovigencia.cs
prc_usuariosparanotificar.cs
loadauditcontratante.cs
audit_bc.cs
wwpbaseobjects\loadwwpcontext.cs
contagemresultadonotificacao_bc.cs
areatrabalho_bc.cs
prc_temsrvdocntcomvlr.cs
contrato_bc.cs
prc_usuarioemailget.cs
contratante_bc.cs
prc_newperfilgestor.cs
parametrossistema_bc.cs
