/t:library
/w:0
/r:bin\Artech.Security.API.Common.dll

/r:bin\GXClasses.dll
/r:system.web.dll
/r:system.web.services.dll
/r:system.web.dll
/r:bin\Interop.GXOFFICE2Lib.dll
/r:bin\GxExcelI.dll
/r:bin\GxMail.dll
/r:system.dll
/r:system.data.dll
/r:system.data.dll
/r:bin\GeneXus.Programs.Common.dll
/r:GxBaseBuilder.dll
/out:bin\wp_monitoramento.dll
prc_novapessoacontratante.cs
prc_getredmine.cs
prc_datadeinicioutil.cs
prc_podedesativararea.cs
prc_retornacontratantepelocnpj.cs
prc_adddiasuteis.cs
prc_getprodutividadedia.cs
prc_usuarioehcontratantedaarea.cs
prc_ehferiado.cs
prc_parametrossistemaimagem.cs
wwpbaseobjects\setwwpcontext.cs
geralog.cs
prc_enviaremailcsharp.cs
prc_diasparaanalise.cs
wwpbaseobjects\audittransaction.cs
prc_diadisponivelagendaatendimento.cs
prc_contagemresultadonotificacao.cs
prc_enviaremail.cs
prc_validadocumento.cs
prc_updredmine.cs
prc_contratosaldo.cs
prc_diasuteisentre.cs
prc_diasentregadotpprz.cs
prc_validaremail.cs
pessoa_bc.cs
contagemresultadonotificacao_bc.cs
prc_newperfilgestor.cs
loadauditcontratante.cs
audit_bc.cs
wwpbaseobjects\loadwwpcontext.cs
areatrabalho_bc.cs
wp_monitoramento.cs
prc_diasparaentrega.cs
loadauditareatrabalho.cs
prc_usuarioemailget.cs
contratante_bc.cs
parametrossistema_bc.cs
