/t:library
/w:0
/r:bin\Artech.Security.API.Common.dll

/r:bin\GXClasses.dll
/r:system.web.dll
/r:system.web.services.dll
/r:system.web.dll
/r:bin\Interop.GXOFFICE2Lib.dll
/r:bin\GxExcelI.dll
/r:bin\GxMail.dll
/r:system.dll
/r:system.data.dll
/r:system.data.dll
/r:bin\GeneXus.Programs.Common.dll
/r:GxBaseBuilder.dll
/out:bin\wp_projetomelhoriaobs.dll
prc_padronizastring.cs
prc_funcaoapf_ar.cs
prc_funcaoapf_td.cs
prc_fapadrao.cs
prc_sistemasfromexcel.cs
prc_funcaodados_rlr.cs
prc_fapfcomplexidade.cs
tabela_bc.cs
prc_existemodulo.cs
loadauditsistema.cs
wwpbaseobjects\audittransaction.cs
prc_fdpf.cs
prc_sistema_pf.cs
prc_upderrosfaltacoordenacao.cs
prc_fdcomplexidade.cs
prc_existenomecadastrado.cs
prc_desativarregistro.cs
prc_projetomelhoriains.cs
audit_bc.cs
wwpbaseobjects\loadwwpcontext.cs
sistema_bc.cs
prc_funcaodados_der.cs
wp_projetomelhoriaobs.cs
prc_setnaopodedeletar.cs
modulo_bc.cs
prc_fapfpf.cs
prc_getgpoobjctrl_responsavel.cs
