/t:library
/w:0
/r:bin\Artech.Security.API.Common.dll

/r:bin\GXClasses.dll
/r:system.web.dll
/r:system.web.services.dll
/r:system.web.dll
/r:bin\Interop.GXOFFICE2Lib.dll
/r:bin\GxExcelI.dll
/r:bin\GxMail.dll
/r:system.dll
/r:system.data.dll
/r:system.data.dll
/r:bin\GeneXus.Programs.Common.dll
/r:GxBaseBuilder.dll
/out:bin\wwmodulo.dll
wwpbaseobjects\loadgridstate.cs
prc_existenomecadastrado.cs
wwpbaseobjects\loadwwpcontext.cs
prc_desativarregistro.cs
wwpbaseobjects\savegridstate.cs
wwpbaseobjects\getwwptitlesettingsicons.cs
prc_setnaopodedeletar.cs
tabela_bc.cs
prc_padronizastring.cs
modulo_bc.cs
prc_existemodulo.cs
wwmodulo.cs
